{
  "profiles": {
    "Vota": {
      "commandName": "Project",
      "launchBrowser": true,
      "environmentVariables": {
        "ASPNETCORE_ENVIRONMENT": "Development"
      },
      "applicationUrl": "http://localhost:5000/;https://localhost:5001/"
    }
  }
}